1_1	Ein	ein	_	ART	_	nom|sg|masc	_	2	_	NK	_	_	_	_
1_2	Sprecher	Sprecher	_	NN	_	nom|sg|masc	_	5	_	SB	_	_	_	_
1_3	des	der	_	ART	_	gen|sg|neut	_	4	_	NK	_	_	_	_
1_4	Außenministerium	Außenministerium	_	NN	_	gen|sg|neut	_	2	_	AG	_	_	_	_
1_5	spricht	sprechen	_	VVFIN	_	sg|3|pres|ind	_	0	_	--	_	_	_	_
1_6	.	--	_	$.	_	_	_	5	_	--	_	_	_	_

